
./octez-client --wait none originate smart rollup from bootstrap1 of kind arith of type bytes with kernel  --burn-cap 9999999
Node is bootstrapped.
Estimated gas: 1920.157 units (will add 100 for safety)
Estimated storage: 6552 bytes added (will add 20 for safety)
Operation successfully injected in the node.
Operation hash is '[OPERATION_HASH]'
NOT waiting for the operation to be included.
Use command
  octez-client wait for [OPERATION_HASH] to be included --confirmations 1 --branch [BLOCK_HASH]
and/or an external block explorer to make sure that it has been included.
This sequence of operations was run:
  Manager signed operations:
    From: [PUBLIC_KEY_HASH]
    Fee to the baker: ꜩ0.000551
    Expected counter: 1
    Gas limit: 2021
    Storage limit: 6572 bytes
    Balance updates:
      [PUBLIC_KEY_HASH] ... -ꜩ0.000551
      payload fees(the block proposer) ....... +ꜩ0.000551
    Smart rollup origination:
      Kind: arith
      Parameter type: bytes
      Kernel Blake2B hash: '0e5751c026e543b2e8ab2eb06099daa1d1e5df47778f7787faab45cdf12fe3a8'
      This smart rollup origination was successfully applied
      Consumed gas: 1920.124
      Storage size: 6552 bytes
      Address: [SMART_ROLLUP_HASH]
      Genesis commitment hash: [SC_ROLLUP_COMMITMENT_HASH]
      Balance updates:
        [PUBLIC_KEY_HASH] ... -ꜩ1.638
        storage fees ........................... +ꜩ1.638


./octez-client --wait none execute outbox message of smart rollup '[SMART_ROLLUP_HASH]' from '[PUBLIC_KEY_HASH]' for commitment hash '[SC_ROLLUP_COMMITMENT_HASH]' and output proof '[SMART_ROLLUP_BYTES]' --burn-cap 10
Node is bootstrapped.
Estimated gas: 4684.981 units (will add 100 for safety)
Estimated storage: 5 bytes added (will add 20 for safety)
Operation successfully injected in the node.
Operation hash is '[OPERATION_HASH]'
NOT waiting for the operation to be included.
Use command
  octez-client wait for [OPERATION_HASH] to be included --confirmations 1 --branch [BLOCK_HASH]
and/or an external block explorer to make sure that it has been included.
This sequence of operations was run:
  Manager signed operations:
    From: [PUBLIC_KEY_HASH]
    Fee to the baker: ꜩ0.001102
    Expected counter: 1
    Gas limit: 4785
    Storage limit: 25 bytes
    Balance updates:
      [PUBLIC_KEY_HASH] ... -ꜩ0.001102
      payload fees(the block proposer) ....... +ꜩ0.001102
    Smart rollup output message execution:
      Address: [SMART_ROLLUP_HASH]
      Cemented commitment: [SC_ROLLUP_COMMITMENT_HASH]
      This smart output message execution was successfully applied
      Paid storage size diff: 5 bytes
      Consumed gas: 3931.537
      Balance updates:
        [PUBLIC_KEY_HASH] ... -ꜩ0.00125
        storage fees ........................... +ꜩ0.00125
      Internal operations:
        Internal Transaction:
          Amount: ꜩ0
          From: [SMART_ROLLUP_HASH]
          To: [CONTRACT_HASH]
          Parameter: 37
          This transaction was successfully applied
          Updated storage: 37
          Storage size: 228 bytes
          Consumed gas: 753.378

